{
  "menus": [
    {
      "section": "Modules",
      "items": [

        {
          "title": "Affilications",
          "url": "\/administration\/entite",
          "icone": "fa fa-institution"
        },
        {
          "title": "Publications",
          "url": "\/administration\/article",
          "icone": "fa fa-newspaper-o"
        },
        {
          "title": "Cat\u00e9gories  ",
          "url": "\/administration\/categorie-article",
          "icone": "fa fa-tags"
        },
        {
          "title": "Page",
          "url": "\/administration\/page",
          "icone": "fa fa-sitemap"
        },
        {
          "title": "Galerie",
          "url": "\/administration\/galerie",
          "icone": "fa fa-picture-o"
        },
        {
          "title": "Ev\u00e8nement",
          "url": "\/administration\/event",
          "icone": "fa fa-calendar"
        },
        {
          "title": "Slides",
          "url": "\/administration\/slides",
          "icone": "fa  fa-file-image-o"
        },
        {
          "title": "Document",
          "url": "\/administration\/document",
          "icone": "fa  fa-file"
        },
        {
          "title": "Message",
          "url": "\/administration\/message",
          "icone": "fa  fa-comment"
        },
        {
          "title": "Affiliations",
          "url": "\/administration\/a",
          "icone": "fa  fa-flag-o"
        }
      ]
    },
    {
      "section": "Gestions des utilisateurs",
      "items": [
        {
          "title": "Utilisateurs",
          "url": "\/administration\/users",
          "icone": "fa fa-users"
        },
        {
          "title": "Roles",
          "url": "\/administration\/roles",
          "icone": "fa fa-tasks"
        },
        {
          "title": "Permissions",
          "url": "\/administration\/permissions",
          "icone": "fa fa-table"
        },
        {
          "title": "Donner des Permissions",
          "url": "\/administration\/give-role-permissions",
          "icone": "fa fa-bell"
        }
      ]
    },
    {
      "section": "Options",
      "items": [
        {
          "title": "Generateur",
          "url": "\/administration\/generator"
        }
      ]
    }
  ]
}